%YAML 1.1
%TAG !u! tag:unity3d.com,2011:
--- !u!114 &5944577960735687834
MonoBehaviour:
  m_ObjectHideFlags: 0
  m_CorrespondingSourceObject: {fileID: 0}
  m_PrefabInstance: {fileID: 0}
  m_PrefabAsset: {fileID: 0}
  m_GameObject: {fileID: 8235771027212542105}
  m_Enabled: 1
  m_EditorHideFlags: 0
  m_Script: {fileID: 11500000, guid: 091c57d3cdca41668e74765fba40e675, type: 3}
  m_Name: 
  m_EditorClassIdentifier: 
  outlineMode: 0
  outlineColor: {r: 1, g: 1, b: 1, a: 1}
  outlineWidth: 2
--- !u!1001 &8274564710159425553
PrefabInstance:
  m_ObjectHideFlags: 0
  serializedVersion: 2
  m_Modification:
    m_TransformParent: {fileID: 0}
    m_Modifications:
    - target: {fileID: 2449236446804045442, guid: ebb6a135c34623e4c90176702a5a72be, type: 3}
      propertyPath: m_Name
      value: Boxmenu
      objectReference: {fileID: 0}
    - target: {fileID: 3077857671651636280, guid: ebb6a135c34623e4c90176702a5a72be, type: 3}
      propertyPath: m_RootOrder
      value: 0
      objectReference: {fileID: 0}
    - target: {fileID: 3077857671651636280, guid: ebb6a135c34623e4c90176702a5a72be, type: 3}
      propertyPath: m_LocalPosition.x
      value: -59.82
      objectReference: {fileID: 0}
    - target: {fileID: 3077857671651636280, guid: ebb6a135c34623e4c90176702a5a72be, type: 3}
      propertyPath: m_LocalPosition.y
      value: 0
      objectReference: {fileID: 0}
    - target: {fileID: 3077857671651636280, guid: ebb6a135c34623e4c90176702a5a72be, type: 3}
      propertyPath: m_LocalPosition.z
      value: 0
      objectReference: {fileID: 0}
    - target: {fileID: 3077857671651636280, guid: ebb6a135c34623e4c90176702a5a72be, type: 3}
      propertyPath: m_LocalRotation.w
      value: 1
      objectReference: {fileID: 0}
    - target: {fileID: 3077857671651636280, guid: ebb6a135c34623e4c90176702a5a72be, type: 3}
      propertyPath: m_LocalRotation.x
      value: 0
      objectReference: {fileID: 0}
    - target: {fileID: 3077857671651636280, guid: ebb6a135c34623e4c90176702a5a72be, type: 3}
      propertyPath: m_LocalRotation.y
      value: 0
      objectReference: {fileID: 0}
    - target: {fileID: 3077857671651636280, guid: ebb6a135c34623e4c90176702a5a72be, type: 3}
      propertyPath: m_LocalRotation.z
      value: 0
      objectReference: {fileID: 0}
    - target: {fileID: 3077857671651636280, guid: ebb6a135c34623e4c90176702a5a72be, type: 3}
      propertyPath: m_LocalEulerAnglesHint.x
      value: 0
      objectReference: {fileID: 0}
    - target: {fileID: 3077857671651636280, guid: ebb6a135c34623e4c90176702a5a72be, type: 3}
      propertyPath: m_LocalEulerAnglesHint.y
      value: 0
      objectReference: {fileID: 0}
    - target: {fileID: 3077857671651636280, guid: ebb6a135c34623e4c90176702a5a72be, type: 3}
      propertyPath: m_LocalEulerAnglesHint.z
      value: 0
      objectReference: {fileID: 0}
    m_RemovedComponents: []
  m_SourcePrefab: {fileID: 100100000, guid: ebb6a135c34623e4c90176702a5a72be, type: 3}
--- !u!1 &8235771027212542105 stripped
GameObject:
  m_CorrespondingSourceObject: {fileID: 44612539014447240, guid: ebb6a135c34623e4c90176702a5a72be, type: 3}
  m_PrefabInstance: {fileID: 8274564710159425553}
  m_PrefabAsset: {fileID: 0}
