%YAML 1.1
%TAG !u! tag:unity3d.com,2011:
--- !u!1001 &1263507168140180458
PrefabInstance:
  m_ObjectHideFlags: 0
  serializedVersion: 2
  m_Modification:
    m_TransformParent: {fileID: 0}
    m_Modifications:
    - target: {fileID: -8679921383154817045, guid: 2aac6f82e7d635b4da308d02fa2eb51b, type: 3}
      propertyPath: m_RootOrder
      value: 0
      objectReference: {fileID: 0}
    - target: {fileID: -8679921383154817045, guid: 2aac6f82e7d635b4da308d02fa2eb51b, type: 3}
      propertyPath: m_LocalPosition.x
      value: 0
      objectReference: {fileID: 0}
    - target: {fileID: -8679921383154817045, guid: 2aac6f82e7d635b4da308d02fa2eb51b, type: 3}
      propertyPath: m_LocalPosition.y
      value: 0
      objectReference: {fileID: 0}
    - target: {fileID: -8679921383154817045, guid: 2aac6f82e7d635b4da308d02fa2eb51b, type: 3}
      propertyPath: m_LocalPosition.z
      value: 0
      objectReference: {fileID: 0}
    - target: {fileID: -8679921383154817045, guid: 2aac6f82e7d635b4da308d02fa2eb51b, type: 3}
      propertyPath: m_LocalRotation.w
      value: 1
      objectReference: {fileID: 0}
    - target: {fileID: -8679921383154817045, guid: 2aac6f82e7d635b4da308d02fa2eb51b, type: 3}
      propertyPath: m_LocalRotation.x
      value: 0
      objectReference: {fileID: 0}
    - target: {fileID: -8679921383154817045, guid: 2aac6f82e7d635b4da308d02fa2eb51b, type: 3}
      propertyPath: m_LocalRotation.y
      value: -0
      objectReference: {fileID: 0}
    - target: {fileID: -8679921383154817045, guid: 2aac6f82e7d635b4da308d02fa2eb51b, type: 3}
      propertyPath: m_LocalRotation.z
      value: -0
      objectReference: {fileID: 0}
    - target: {fileID: -8679921383154817045, guid: 2aac6f82e7d635b4da308d02fa2eb51b, type: 3}
      propertyPath: m_LocalEulerAnglesHint.x
      value: 0
      objectReference: {fileID: 0}
    - target: {fileID: -8679921383154817045, guid: 2aac6f82e7d635b4da308d02fa2eb51b, type: 3}
      propertyPath: m_LocalEulerAnglesHint.y
      value: 0
      objectReference: {fileID: 0}
    - target: {fileID: -8679921383154817045, guid: 2aac6f82e7d635b4da308d02fa2eb51b, type: 3}
      propertyPath: m_LocalEulerAnglesHint.z
      value: 0
      objectReference: {fileID: 0}
    - target: {fileID: -7511558181221131132, guid: 2aac6f82e7d635b4da308d02fa2eb51b, type: 3}
      propertyPath: m_Materials.Array.data[0]
      value: 
      objectReference: {fileID: 2100000, guid: af998a8206ebfc8428b22caea7a674b0, type: 2}
    - target: {fileID: -7511558181221131132, guid: 2aac6f82e7d635b4da308d02fa2eb51b, type: 3}
      propertyPath: m_Materials.Array.data[1]
      value: 
      objectReference: {fileID: 2100000, guid: bf407fcaf239c9546ae0e2bd07354951, type: 2}
    - target: {fileID: -7511558181221131132, guid: 2aac6f82e7d635b4da308d02fa2eb51b, type: 3}
      propertyPath: m_Materials.Array.data[2]
      value: 
      objectReference: {fileID: 2100000, guid: 8a439dae789a90d40b23fe11ec84dc87, type: 2}
    - target: {fileID: 919132149155446097, guid: 2aac6f82e7d635b4da308d02fa2eb51b, type: 3}
      propertyPath: m_Name
      value: Fuse_case
      objectReference: {fileID: 0}
    m_RemovedComponents: []
  m_SourcePrefab: {fileID: 100100000, guid: 2aac6f82e7d635b4da308d02fa2eb51b, type: 3}
