%YAML 1.1
%TAG !u! tag:unity3d.com,2011:
--- !u!1045 &1
EditorBuildSettings:
  m_ObjectHideFlags: 0
  serializedVersion: 2
  m_Scenes:
  - enabled: 1
    path: Assets/Scenes/ConfigTestScene.unity
    guid: 56b34fc029b71b74e99fd3d21e23e2a0
  - enabled: 1
    path: Assets/Scenes/FeaturesWeek7.unity
    guid: 0e698586dae868644a04c597bfea3416
  - enabled: 0
    path: Assets/Scenes/Bug Fixing Scenes/ImplementationThingsWeek6.unity
    guid: 6f9f57d0da6dcb1419b609ac098cacc4
  m_configObjects: {}
