%YAML 1.1
%TAG !u! tag:unity3d.com,2011:
--- !u!114 &11400000
MonoBehaviour:
  m_ObjectHideFlags: 0
  m_CorrespondingSourceObject: {fileID: 0}
  m_PrefabInstance: {fileID: 0}
  m_PrefabAsset: {fileID: 0}
  m_GameObject: {fileID: 0}
  m_Enabled: 1
  m_EditorHideFlags: 0
  m_Script: {fileID: 11500000, guid: f349cccf6f264d318a86f2ca314b3720, type: 3}
  m_Name: ProgressionSettings
  m_EditorClassIdentifier: 
  levels:
  - ordersUntilNextLevel: 100
    allowedItems: 1
    availablePlanets: 1
    orderSize: {x: 3, y: 6}
    parallelOrders: 1
    orderValue: 100
