%YAML 1.1
%TAG !u! tag:unity3d.com,2011:
--- !u!114 &11400000
MonoBehaviour:
  m_ObjectHideFlags: 0
  m_CorrespondingSourceObject: {fileID: 0}
  m_PrefabInstance: {fileID: 0}
  m_PrefabAsset: {fileID: 0}
  m_GameObject: {fileID: 0}
  m_Enabled: 1
  m_EditorHideFlags: 0
  m_Script: {fileID: 11500000, guid: 0e926043240ae1b4da1a0b485f8c4372, type: 3}
  m_Name: TestItemCreator
  m_EditorClassIdentifier: 
  foodSettings:
    type: 0
    chance: 0
    chanceLowValue: 0
    lowValue: 0
    chanceHighValue: 0
    highValue: 0
    lowValuePrefabs: []
    highValuePrefabs: []
  fuelSettings:
    type: 0
    chance: 0
    chanceLowValue: 0
    lowValue: 0
    chanceHighValue: 0
    highValue: 0
    lowValuePrefabs: []
    highValuePrefabs: []
  mechanicalPartsSettings:
    type: 0
    chance: 0
    chanceLowValue: 0
    lowValue: 0
    chanceHighValue: 0
    highValue: 0
    lowValuePrefabs: []
    highValuePrefabs: []
  medicineSettings:
    type: 0
    chance: 0
    chanceLowValue: 0
    lowValue: 0
    chanceHighValue: 0
    highValue: 0
    lowValuePrefabs: []
    highValuePrefabs: []
